My Data Analysis Portfolio - Flu Analysis: Machine Learning
…
dtree_wf <- workflow() %>%
  add_model(tunespec_dtree) %>%
  add_recipe(rec_train)

Now let’s tune grid specs

tree_grid_dtree <-
  dials::grid_regular(
    cost_complexity(), 
    tree_depth(), 
    levels = 5)

tree_grid_dtree

# A tibble: 25 × 2
   cost_complexity tree_depth
             <dbl>      <int>
 1    0.0000000001          1
 2    0.0000000178          1
 3    0.00000316            1
 4    0.000562              1
 5    0.1                   1
 6    0.0000000001          4
 7    0.0000000178          4
 8    0.00000316            4
 9    0.000562              4
10    0.1                   4
# … with 15 more rows
…
! Fold2, Repeat5: internal: A correlation computation is required, but `estimate` is constant and ha...

! Fold3, Repeat5: internal: A correlation computation is required, but `estimate` is constant and ha...

! Fold4, Repeat5: internal: A correlation computation is required, but `estimate` is constant and ha...

! Fold5, Repeat5: internal: A correlation computation is required, but `estimate` is constant and ha...

#Awesome, now that we have these results we can do some exploration and visualization!

#Checking out the model's metrics
dt_resample %>%
  collect_metrics()

# A tibble: 50 × 8
   cost_complexity tree_depth .metric .estimator     mean     n  std_err .config
             <dbl>      <int> <chr>   <chr>         <dbl> <int>    <dbl> <chr>  
 1    0.0000000001          1 rmse    standard     1.17      25  0.0207  Prepro…
 2    0.0000000001          1 rsq     standard     0.0489    25  0.00738 Prepro…
 3    0.0000000178          1 rmse    standard     1.17      25  0.0207  Prepro…
 4    0.0000000178          1 rsq     standard     0.0489    25  0.00738 Prepro…
 5    0.00000316            1 rmse    standard     1.17      25  0.0207  Prepro…
 6    0.00000316            1 rsq     standard     0.0489    25  0.00738 Prepro…
 7    0.000562              1 rmse    standard     1.17      25  0.0207  Prepro…
 8    0.000562              1 rsq     standard     0.0489    25  0.00738 Prepro…
 9    0.1                   1 rmse    standard     1.19      25  0.0202  Prepro…
10    0.1                   1 rsq     standard   NaN          0 NA       Prepro…
# … with 40 more rows
…
dt_final_fit <- 
  dtfinal_wf %>%
  fit(train_data) 

Residuals and Plotting

dt_res <- dt_final_fit %>%
  augment(train_data) %>% 
  select(c(.pred, BodyTemp)) %>%
  mutate(.resid = BodyTemp - .pred)

dt_res

# A tibble: 583 × 3
   .pred BodyTemp .resid
   <dbl>    <dbl>  <dbl>
 1  98.6     97.8 -0.771
 2  99.1     98.2 -0.915
 3  99.1     97.9 -1.21 
 4  98.6     98.1 -0.471
 5  98.6     98.1 -0.471
 6  99.1     98.2 -0.915
 7  98.6     97.8 -0.771
 8  99.1     98   -1.11 
 9  99.1     98.1 -1.01 
10  99.1     98.1 -1.01 
# … with 573 more rows
…
#Cross Validation and tune_grid()

lasso_resample <- 
  lasso_wf %>%
  tune_grid(resamples = f_data_train,
            grid = lasso_grid,
            control = control_grid(verbose = FALSE, save_pred = TRUE),
            metrics = metric_set(rmse))

lasso_resample %>%
  collect_metrics()

# A tibble: 30 × 7
   penalty .metric .estimator  mean     n std_err .config              
     <dbl> <chr>   <chr>      <dbl> <int>   <dbl> <chr>                
 1 0.001   rmse    standard    1.19    25  0.0179 Preprocessor1_Model01
 2 0.00127 rmse    standard    1.19    25  0.0179 Preprocessor1_Model02
 3 0.00161 rmse    standard    1.19    25  0.0179 Preprocessor1_Model03
 4 0.00204 rmse    standard    1.19    25  0.0179 Preprocessor1_Model04
 5 0.00259 rmse    standard    1.18    25  0.0180 Preprocessor1_Model05
 6 0.00329 rmse    standard    1.18    25  0.0180 Preprocessor1_Model06
 7 0.00418 rmse    standard    1.18    25  0.0180 Preprocessor1_Model07
 8 0.00530 rmse    standard    1.18    25  0.0181 Preprocessor1_Model08
 9 0.00672 rmse    standard    1.18    25  0.0181 Preprocessor1_Model09
10 0.00853 rmse    standard    1.18    25  0.0182 Preprocessor1_Model10
# … with 20 more rows
…
#Follow same process as above
lasso_final_fit <- 
  lasso_final_wf %>%
  fit(train_data) 

Residuals

lasso_residuals <- lasso_final_fit %>%
  augment(train_data) %>% #use augment() to make predictions from train data
  select(c(.pred, BodyTemp)) %>%
  mutate(.resid = BodyTemp - .pred) #add row here

lasso_residuals

# A tibble: 583 × 3
   .pred BodyTemp .resid
   <dbl>    <dbl>  <dbl>
 1  98.5     97.8 -0.745
 2  99.2     98.2 -1.01 
 3  99.4     97.9 -1.49 
 4  98.5     98.1 -0.399
 5  98.7     98.1 -0.583
 6  98.9     98.2 -0.736
 7  98.8     97.8 -0.955
 8  99.0     98   -0.958
 9  99.4     98.1 -1.34 
10  99.2     98.1 -1.12 
# … with 573 more rows
…
#Cross validation
rf_resample <- 
  rf_wf %>% 
  tune_grid(f_data_train,
            grid = 25,
            control = control_grid(save_pred = TRUE),
            metrics = metric_set(rmse))

i Creating pre-processing data to finalize unknown parameter: mtry

rf_resample %>%
  collect_metrics()

# A tibble: 25 × 8
    mtry min_n .metric .estimator  mean     n std_err .config              
   <int> <int> <chr>   <chr>      <dbl> <int>   <dbl> <chr>                
 1    22    28 rmse    standard    1.19    25  0.0171 Preprocessor1_Model01
 2    15    10 rmse    standard    1.20    25  0.0165 Preprocessor1_Model02
 3    31     6 rmse    standard    1.23    25  0.0150 Preprocessor1_Model03
 4    21    33 rmse    standard    1.18    25  0.0176 Preprocessor1_Model04
 5    13    18 rmse    standard    1.19    25  0.0172 Preprocessor1_Model05
 6    29    37 rmse    standard    1.19    25  0.0175 Preprocessor1_Model06
 7     1    23 rmse    standard    1.17    25  0.0200 Preprocessor1_Model07
 8    28    22 rmse    standard    1.20    25  0.0167 Preprocessor1_Model08
 9    27    16 rmse    standard    1.21    25  0.0164 Preprocessor1_Model09
10    10    35 rmse    standard    1.17    25  0.0182 Preprocessor1_Model10
# … with 15 more rows
…
rf_final_fit <- 
  rf_final_wf %>%
  fit(train_data) 

rf_residuals <- rf_final_fit %>%
  augment(train_data) %>% 
  select(c(.pred, BodyTemp)) %>%
  mutate(.resid = BodyTemp - .pred) 

rf_residuals

# A tibble: 583 × 3
   .pred BodyTemp .resid
   <dbl>    <dbl>  <dbl>
 1  98.6     97.8 -0.767
 2  99.2     98.2 -0.990
 3  99.3     97.9 -1.38 
 4  98.5     98.1 -0.430
 5  98.8     98.1 -0.708
 6  98.8     98.2 -0.619
 7  98.9     97.8 -1.14 
 8  98.9     98   -0.902
 9  99.3     98.1 -1.21 
10  99.0     98.1 -0.947
# … with 573 more rows
…
