My Data Analysis Portfolio - Flu Analysis Data: Model Evaluation
…
#Creation of Single Function
flu_fit<- 
  flu_WF %>% 
  fit(data= train_data_flu)

#Extracting 
flu_fit %>%
  extract_fit_parsnip() %>%
  tidy()

# A tibble: 38 × 5
   term                 estimate std.error statistic p.value
   <chr>                   <dbl>     <dbl>     <dbl>   <dbl>
 1 (Intercept)           -0.469      9.35    -0.0501   0.960
 2 SwollenLymphNodesYes  -0.0812     0.230   -0.353    0.724
 3 ChestCongestionYes     0.282      0.249    1.13     0.257
 4 ChillsSweatsYes       -0.122      0.341   -0.358    0.720
 5 NasalCongestionYes     0.220      0.299    0.735    0.462
 6 CoughYNYes            -0.135      0.601   -0.224    0.823
 7 SneezeYes              0.162      0.243    0.666    0.506
 8 FatigueYes             0.220      0.450    0.488    0.626
 9 SubjectiveFeverYes     0.115      0.262    0.439    0.661
10 HeadacheYes            0.469      0.339    1.38     0.166
# … with 28 more rows

#Predicting 
predict(flu_fit, train_data_flu)

Warning in predict.lm(object, newdata, se.fit, scale = 1, type = if (type == :
prediction from a rank-deficient fit may be misleading

# A tibble: 547 × 1
   .pred_class
   <fct>      
 1 No         
 2 No         
 3 No         
 4 No         
 5 No         
 6 Yes        
 7 Yes        
 8 No         
 9 Yes        
10 No         
# … with 537 more rows

pred_flufit<- augment(flu_fit, train_data_flu)

Warning in predict.lm(object, newdata, se.fit, scale = 1, type = if (type == :
prediction from a rank-deficient fit may be misleading

Warning in predict.lm(object, newdata, se.fit, scale = 1, type = if (type == :
prediction from a rank-deficient fit may be misleading

pred_flufit %>% 
  select(Nausea, .pred_No, .pred_Yes)

# A tibble: 547 × 3
   Nausea .pred_No .pred_Yes
   <fct>     <dbl>     <dbl>
 1 No       0.572      0.428
 2 No       0.558      0.442
 3 Yes      0.851      0.149
 4 No       0.776      0.224
 5 Yes      0.898      0.102
 6 Yes      0.0465     0.953
 7 Yes      0.433      0.567
 8 No       0.881      0.119
 9 Yes      0.180      0.820
10 No       0.674      0.326
# … with 537 more rows
…
#Creation of Single Function
flu_fit_test<- 
  flu_WF_test %>% 
  fit(data= test_data_flu)

#Extracting 
flu_fit_test %>%
  extract_fit_parsnip() %>%
  tidy()

# A tibble: 38 × 5
   term                 estimate std.error statistic p.value
   <chr>                   <dbl>     <dbl>     <dbl>   <dbl>
 1 (Intercept)           14.5       17.1       0.847  0.397 
 2 SwollenLymphNodesYes  -0.705      0.487    -1.45   0.148 
 3 ChestCongestionYes     0.0830     0.508     0.163  0.870 
 4 ChillsSweatsYes        1.33       0.706     1.88   0.0600
 5 NasalCongestionYes     1.05       0.626     1.67   0.0943
 6 CoughYNYes             1.22       1.43      0.855  0.392 
 7 SneezeYes              0.130      0.545     0.239  0.811 
 8 FatigueYes             0.721      0.886     0.814  0.416 
 9 SubjectiveFeverYes     1.13       0.647     1.75   0.0796
10 HeadacheYes           -0.445      0.685    -0.650  0.516 
# … with 28 more rows

#Predicting 
predict(flu_fit_test, test_data_flu)

Warning in predict.lm(object, newdata, se.fit, scale = 1, type = if (type == :
prediction from a rank-deficient fit may be misleading

# A tibble: 183 × 1
   .pred_class
   <fct>      
 1 No         
 2 Yes        
 3 No         
 4 No         
 5 Yes        
 6 No         
 7 Yes        
 8 No         
 9 No         
10 Yes        
# … with 173 more rows

pred_flufit_test<- augment(flu_fit_test, test_data_flu)

Warning in predict.lm(object, newdata, se.fit, scale = 1, type = if (type == :
prediction from a rank-deficient fit may be misleading

Warning in predict.lm(object, newdata, se.fit, scale = 1, type = if (type == :
prediction from a rank-deficient fit may be misleading

pred_flufit_test %>% 
  select(Nausea, .pred_No, .pred_Yes)

# A tibble: 183 × 3
   Nausea .pred_No .pred_Yes
   <fct>     <dbl>     <dbl>
 1 No      0.993     0.00689
 2 Yes     0.00627   0.994  
 3 No      0.855     0.145  
 4 No      0.954     0.0464 
 5 Yes     0.0332    0.967  
 6 No      0.775     0.225  
 7 Yes     0.100     0.900  
 8 No      0.780     0.220  
 9 No      0.608     0.392  
10 Yes     0.0603    0.940  
# … with 173 more rows
…
#Extracting 
flu_fit_RN %>%
  extract_fit_parsnip() %>%
  tidy()

# A tibble: 2 × 5
  term         estimate std.error statistic   p.value
  <chr>           <dbl>     <dbl>     <dbl>     <dbl>
1 (Intercept)    -0.753     0.173    -4.34  0.0000140
2 RunnyNoseYes    0.135     0.203     0.664 0.507    

#Predicting 
predict(flu_fit_RN, train_data_RN)

# A tibble: 547 × 1
   .pred_class
   <fct>      
 1 No         
 2 No         
 3 No         
 4 No         
 5 No         
 6 No         
 7 No         
 8 No         
 9 No         
10 No         
# … with 537 more rows

pred_RNfit<- augment(flu_fit_RN, train_data_RN)

pred_RNfit %>% 
  select(Nausea, .pred_No, .pred_Yes)

# A tibble: 547 × 3
   Nausea .pred_No .pred_Yes
   <fct>     <dbl>     <dbl>
 1 No        0.650     0.350
 2 No        0.650     0.350
 3 Yes       0.650     0.350
 4 No        0.680     0.320
 5 Yes       0.680     0.320
 6 Yes       0.650     0.350
 7 Yes       0.650     0.350
 8 No        0.650     0.350
 9 Yes       0.650     0.350
10 No        0.650     0.350
# … with 537 more rows
…
#Extracting 
flu_fit_RNTest %>%
  extract_fit_parsnip() %>%
  tidy()

# A tibble: 2 × 5
  term         estimate std.error statistic p.value
  <chr>           <dbl>     <dbl>     <dbl>   <dbl>
1 (Intercept)    -0.420     0.268    -1.56    0.118
2 RunnyNoseYes   -0.156     0.327    -0.476   0.634

#Predicting 
predict(flu_fit_RNTest, test_data_RN)

# A tibble: 183 × 1
   .pred_class
   <fct>      
 1 No         
 2 No         
 3 No         
 4 No         
 5 No         
 6 No         
 7 No         
 8 No         
 9 No         
10 No         
# … with 173 more rows

pred_RNfitTest<- augment(flu_fit_RNTest, test_data_RN)

pred_RNfitTest %>% 
  select(Nausea, .pred_No, .pred_Yes)

# A tibble: 183 × 3
   Nausea .pred_No .pred_Yes
   <fct>     <dbl>     <dbl>
 1 No        0.603     0.397
 2 Yes       0.603     0.397
 3 No        0.640     0.360
 4 No        0.603     0.397
 5 Yes       0.640     0.360
 6 No        0.640     0.360
 7 Yes       0.640     0.360
 8 No        0.640     0.360
 9 No        0.603     0.397
10 Yes       0.603     0.397
# … with 173 more rows
…
#create fitted model
flu_fitBTAS <-
  flu_wflowBTAS %>% 
  fit(data = train_data_flu)

#check fitted model
flu_fitBTAS %>% 
  extract_fit_parsnip() %>% 
  tidy()

# A tibble: 38 × 5
   term                 estimate std.error statistic p.value
   <chr>                   <dbl>     <dbl>     <dbl>   <dbl>
 1 (Intercept)           97.8        0.347   282.    0      
 2 SwollenLymphNodesYes  -0.124      0.105    -1.17  0.241  
 3 ChestCongestionYes     0.0731     0.112     0.655 0.513  
 4 ChillsSweatsYes        0.140      0.148     0.949 0.343  
 5 NasalCongestionYes    -0.183      0.131    -1.39  0.164  
 6 CoughYNYes             0.353      0.268     1.31  0.189  
 7 SneezeYes             -0.297      0.110    -2.70  0.00706
 8 FatigueYes             0.360      0.185     1.94  0.0528 
 9 SubjectiveFeverYes     0.361      0.116     3.11  0.00196
10 HeadacheYes            0.0332     0.142     0.233 0.816  
# … with 28 more rows
…
