My Data Analysis Portfolio - R Coding Exercise
…
── Conflicts ───────────────────────────────────────── tidymodels_conflicts() ──
✖ purrr::discard() masks scales::discard()
✖ dplyr::filter()  masks stats::filter()
✖ dplyr::lag()     masks stats::lag()
✖ recipes::step()  masks stats::step()
• Search for functions across packages at https://www.tidymodels.org/find/

Use broom package to look at stats differently

Life Exp Vs Infant Mortality

augment(fit1)

# A tibble: 51 × 9
   .rownames life_expect…¹ infan…² .fitted  .resid   .hat .sigma .cooksd .std.…³
   <chr>             <dbl>   <dbl>   <dbl>   <dbl>  <dbl>  <dbl>   <dbl>   <dbl>
 1 7402               73.3    33.9    64.9   8.42  0.0627   6.16 6.54e-2  1.40  
 2 7403               52.3   128.     47.0   5.28  0.0714   6.24 2.98e-2  0.880 
 3 7418               57.2    89.3    54.4   2.80  0.0219   6.27 2.32e-3  0.455 
 4 7422               47.6    52.4    61.4 -13.8   0.0346   5.95 9.10e-2 -2.25  
 5 7426               52.6    96.2    53.1  -0.496 0.0260   6.28 8.69e-5 -0.0807
 6 7427               46.7    93.4    53.6  -6.93  0.0241   6.20 1.57e-2 -1.13  
 7 7429               54.3    91.9    53.9   0.391 0.0232   6.29 4.80e-5  0.0636
 8 7431               68.4    29.1    65.8   2.61  0.0724   6.27 7.41e-3  0.436 
 9 7432               45.3   114.     49.8  -4.50  0.0452   6.25 1.30e-2 -0.741 
10 7433               51.5   106.     51.3   0.201 0.0348   6.29 1.96e-5  0.0329
# … with 41 more rows, and abbreviated variable names ¹​life_expectancy,
#   ²​infant_mortality, ³​.std.resid
…
Life Exp Vs Population

augment(fit2)

# A tibble: 51 × 9
   .rownames life_expecta…¹ popul…² .fitted .resid   .hat .sigma .cooksd .std.…³
   <chr>              <dbl>   <dbl>   <dbl>  <dbl>  <dbl>  <dbl>   <dbl>   <dbl>
 1 7402                73.3  3.12e7    56.8  16.5  0.0295   8.27 5.87e-2   1.97 
 2 7403                52.3  1.51e7    56.3  -4.05 0.0196   8.59 2.30e-3  -0.479
 3 7418                57.2  6.95e6    56.1   1.08 0.0227   8.61 1.90e-4   0.128
 4 7422                47.6  1.74e6    56.0  -8.38 0.0276   8.52 1.41e-2  -0.997
 5 7426                52.6  1.16e7    56.3  -3.65 0.0203   8.60 1.94e-3  -0.433
 6 7427                46.7  6.77e6    56.1  -9.42 0.0229   8.50 1.46e-2  -1.12 
 7 7429                54.3  1.59e7    56.4  -2.07 0.0196   8.61 6.02e-4  -0.245
 8 7431                68.4  4.39e5    55.9  12.5  0.0291   8.42 3.30e-2   1.48 
 9 7432                45.3  3.73e6    56.0 -10.7  0.0254   8.47 2.12e-2  -1.28 
10 7433                51.5  8.34e6    56.2  -4.66 0.0218   8.59 3.41e-3  -0.553
# … with 41 more rows, and abbreviated variable names ¹​life_expectancy,
#   ²​population, ³​.std.resid
…
