My Data Analysis Portfolio - Tidy Tuesday Exercise 2
…
Computational engine: rpart 

**Tuning, Workflow Creation, and More Tuning using other methods

#Tuning Grid
grid_dt <-
  dials::grid_regular(
    cost_complexity(), 
    tree_depth(), 
    levels = 5)

grid_dt

# A tibble: 25 × 2
   cost_complexity tree_depth
             <dbl>      <int>
 1    0.0000000001          1
 2    0.0000000178          1
 3    0.00000316            1
 4    0.000562              1
 5    0.1                   1
 6    0.0000000001          4
 7    0.0000000178          4
 8    0.00000316            4
 9    0.000562              4
10    0.1                   4
# … with 15 more rows
…
Collect Metrics

resamp %>%
  collect_metrics()

# A tibble: 50 × 8
   cost_complexity tree_depth .metric .estimator  mean     n std_err .config    
             <dbl>      <int> <chr>   <chr>      <dbl> <int>   <dbl> <chr>      
 1    0.0000000001          1 rmse    standard   0.930    25  0.0219 Preprocess…
 2    0.0000000001          1 rsq     standard   0.819    25  0.0129 Preprocess…
 3    0.0000000178          1 rmse    standard   0.930    25  0.0219 Preprocess…
 4    0.0000000178          1 rsq     standard   0.819    25  0.0129 Preprocess…
 5    0.00000316            1 rmse    standard   0.930    25  0.0219 Preprocess…
 6    0.00000316            1 rsq     standard   0.819    25  0.0129 Preprocess…
 7    0.000562              1 rmse    standard   0.930    25  0.0219 Preprocess…
 8    0.000562              1 rsq     standard   0.819    25  0.0129 Preprocess…
 9    0.1                   1 rmse    standard   0.930    25  0.0219 Preprocess…
10    0.1                   1 rsq     standard   0.819    25  0.0129 Preprocess…
# … with 40 more rows
…
dt_fin_fit<- final_wf %>%
  fit(train_data)

Residuals

#Piping several augment helps determine predictions from OG train data, while mutate will make a new row with calculated residuals
dt_res<- dt_fin_fit %>%
  augment(train_data) %>%
  select(c(.pred, egg_hen)) %>%
  mutate(.resid=egg_hen-.pred)

dt_res

# A tibble: 165 × 3
   .pred egg_hen  .resid
   <dbl>   <dbl>   <dbl>
 1  23.5    24.6  1.12  
 2  23.5    22.8 -0.728 
 3  23.5    23.5 -0.0454
 4  23.5    23.2 -0.278 
 5  23.5    23.2 -0.278 
 6  19.0    19.2  0.222 
 7  23.5    23.3 -0.200 
 8  23.5    21.1 -2.39  
 9  19.0    18.5 -0.475 
10  23.5    23.6  0.0321
# … with 155 more rows
…
rfg  <- expand.grid(mtry = c(3, 4, 5, 6), min_n = c(40,50,60), trees = c(500,1000))

rf_resamp <- 
  rf_wf %>% 
  tune_grid(ep_fold_train,
            grid = 25,
            control = control_grid(save_pred = TRUE),
            metrics = metric_set(yardstick::rmse))

i Creating pre-processing data to finalize unknown parameter: mtry

rf_resamp %>%
  collect_metrics()

# A tibble: 22 × 8
    mtry min_n .metric .estimator  mean     n std_err .config              
   <int> <int> <chr>   <chr>      <dbl> <int>   <dbl> <chr>                
 1     1    30 rmse    standard   0.930    25  0.0219 Preprocessor1_Model01
 2     1    28 rmse    standard   0.930    25  0.0219 Preprocessor1_Model02
 3     1     7 rmse    standard   0.930    25  0.0219 Preprocessor1_Model03
 4     1    39 rmse    standard   0.930    25  0.0219 Preprocessor1_Model04
 5     1    12 rmse    standard   0.930    25  0.0218 Preprocessor1_Model05
 6     1    26 rmse    standard   0.930    25  0.0219 Preprocessor1_Model06
 7     1    36 rmse    standard   0.930    25  0.0220 Preprocessor1_Model07
 8     1    34 rmse    standard   0.930    25  0.0219 Preprocessor1_Model08
 9     1    14 rmse    standard   0.930    25  0.0219 Preprocessor1_Model09
10     1     3 rmse    standard   0.930    25  0.0220 Preprocessor1_Model10
# … with 12 more rows
…
rf_ff<-
  wf_final %>%
  fit(train_data)

Residuals

rf_res<- rf_ff %>%
  augment(train_data) %>%
  select(c(.pred, egg_hen)) %>%
  mutate(.resid = egg_hen - .pred)

rf_res

# A tibble: 165 × 3
   .pred egg_hen  .resid
   <dbl>   <dbl>   <dbl>
 1  23.5    24.6  1.11  
 2  23.5    22.8 -0.730 
 3  23.5    23.5 -0.0478
 4  23.5    23.2 -0.280 
 5  23.5    23.2 -0.280 
 6  19.0    19.2  0.221 
 7  23.5    23.3 -0.203 
 8  23.5    21.1 -2.39  
 9  19.0    18.5 -0.476 
10  23.5    23.6  0.0297
# … with 155 more rows
…
rfgt  <- expand.grid(mtry = c(3, 4, 5, 6), min_n = c(40,50,60), trees = c(500,1000))

rf_resamptest <- 
  rf_wf_test %>% 
  tune_grid(ep_fold_test,
            grid = 25,
            control = control_grid(save_pred = TRUE),
            metrics = metric_set(yardstick::rmse))

i Creating pre-processing data to finalize unknown parameter: mtry

rf_resamptest %>%
  collect_metrics()

# A tibble: 24 × 8
    mtry min_n .metric .estimator  mean     n std_err .config              
   <int> <int> <chr>   <chr>      <dbl> <int>   <dbl> <chr>                
 1     1    18 rmse    standard   0.844    25  0.0266 Preprocessor1_Model01
 2     1    26 rmse    standard   0.844    25  0.0266 Preprocessor1_Model02
 3     1    32 rmse    standard   0.844    25  0.0265 Preprocessor1_Model03
 4     1    36 rmse    standard   0.844    25  0.0265 Preprocessor1_Model04
 5     1    15 rmse    standard   0.843    25  0.0267 Preprocessor1_Model05
 6     1    29 rmse    standard   0.843    25  0.0266 Preprocessor1_Model06
 7     1     4 rmse    standard   0.844    25  0.0266 Preprocessor1_Model07
 8     1    23 rmse    standard   0.843    25  0.0266 Preprocessor1_Model08
 9     1    13 rmse    standard   0.844    25  0.0265 Preprocessor1_Model09
10     1    12 rmse    standard   0.844    25  0.0265 Preprocessor1_Model10
# … with 14 more rows
…
rf_fftest<-
  wf_finaltest%>%
  fit(test_data)

Residuals

rf_restest<- rf_ff %>%
  augment(test_data) %>%
  select(c(.pred, egg_hen)) %>%
  mutate(.resid = egg_hen - .pred)

rf_restest

# A tibble: 55 × 3
   .pred egg_hen .resid
   <dbl>   <dbl>  <dbl>
 1  19.0    19.8  0.838
 2  19.0    19.6  0.639
 3  19.0    18.6 -0.404
 4  19.0    18.6 -0.411
 5  19.0    18.6 -0.375
 6  19.0    17.3 -1.72 
 7  19.0    19.1  0.160
 8  19.0    19.1  0.100
 9  19.0    19.2  0.238
10  19.0    19.7  0.712
# … with 45 more rows
…
