My Data Analysis Portfolio - Visualization Exercise
…
nps1<-orig_nps[-c(1,3,6, 118:122)] #Here I will remove the columns that I do not need by selecting the column number
nps2<-nps1[-c(1,2,65),] #I am going to clean the data a bit more by removing the two rows at the top of the dataset
print(nps2) #Much more succinct

# A tibble: 64 × 114
   ...2   ...4  ...5  ...7  ...8  ...9 ...10 ...11 ...12 ...13 ...14 ...15 ...16
   <chr> <dbl> <dbl> <dbl> <dbl> <dbl> <dbl> <dbl> <dbl> <dbl> <dbl> <dbl> <dbl>
 1 Park…  1904  1905  1906  1907  1908  1909  1910  1911  1912  1913  1914  1915
 2 Dena…    NA    NA    NA    NA    NA    NA    NA    NA    NA    NA    NA    NA
 3 Gate…    NA    NA    NA    NA    NA    NA    NA    NA    NA    NA    NA    NA
 4 Glac…    NA    NA    NA    NA    NA    NA    NA    NA    NA    NA    NA    NA
 5 Katm…    NA    NA    NA    NA    NA    NA    NA    NA    NA    NA    NA    NA
 6 Kena…    NA    NA    NA    NA    NA    NA    NA    NA    NA    NA    NA    NA
 7 Kobu…    NA    NA    NA    NA    NA    NA    NA    NA    NA    NA    NA    NA
 8 Lake…    NA    NA    NA    NA    NA    NA    NA    NA    NA    NA    NA    NA
 9 Wran…    NA    NA    NA    NA    NA    NA    NA    NA    NA    NA    NA    NA
10 Arch…    NA    NA    NA    NA    NA    NA    NA    NA    NA    NA    NA    NA
# … with 54 more rows, and 101 more variables: ...17 <dbl>, ...18 <dbl>,
#   ...19 <dbl>, ...20 <dbl>, ...21 <dbl>, ...22 <dbl>, ...23 <dbl>,
#   ...24 <dbl>, ...25 <dbl>, ...26 <dbl>, ...27 <dbl>, ...28 <dbl>,
#   ...29 <dbl>, ...30 <dbl>, ...31 <dbl>, ...32 <dbl>, ...33 <dbl>,
#   ...34 <dbl>, ...35 <dbl>, ...36 <dbl>, ...37 <dbl>, ...38 <dbl>,
#   ...39 <dbl>, ...40 <dbl>, ...41 <dbl>, ...42 <dbl>, ...43 <dbl>,
#   ...44 <dbl>, ...45 <dbl>, ...46 <dbl>, ...47 <dbl>, ...48 <dbl>, …
…
